Exploratory Analysis
…
Start Grouping

weather_df %>% 
  group_by(name, month) %>% 
  summarize(number = n())  # Compute the number of previous groups

## # A tibble: 36 x 3
## # Groups:   name [?]
##    name           month      number
##    <chr>          <date>      <int>
##  1 CentralPark_NY 2016-01-01     31
##  2 CentralPark_NY 2016-02-01     29
##  3 CentralPark_NY 2016-03-01     31
##  4 CentralPark_NY 2016-04-01     30
##  5 CentralPark_NY 2016-05-01     31
##  6 CentralPark_NY 2016-06-01     30
##  7 CentralPark_NY 2016-07-01     31
##  8 CentralPark_NY 2016-08-01     31
##  9 CentralPark_NY 2016-09-01     30
## 10 CentralPark_NY 2016-10-01     31
## # ... with 26 more rows
…
Group Summaries

weather_df %>% 
  group_by(name, month) %>% 
  summarize(number = n(),
             num_na = sum(is.na(tmax)),  # See if the value is NA
            mean_tmax = mean(tmax, na.rm = TRUE), # Calculate the mean of month groups and remove na
            median_prcp = median(prcp, na.rm = TRUE))   # calculate median and remove na

## # A tibble: 36 x 6
## # Groups:   name [?]
##    name           month      number num_na mean_tmax median_prcp
##    <chr>          <date>      <int>  <int>     <dbl>       <dbl>
##  1 CentralPark_NY 2016-01-01     31      0      4.89           0
##  2 CentralPark_NY 2016-02-01     29      0      7.14           0
##  3 CentralPark_NY 2016-03-01     31      0     14.1            0
##  4 CentralPark_NY 2016-04-01     30      0     16.8            0
##  5 CentralPark_NY 2016-05-01     31      0     21.5            0
##  6 CentralPark_NY 2016-06-01     30      0     27.2            0
##  7 CentralPark_NY 2016-07-01     31      0     30.1            0
##  8 CentralPark_NY 2016-08-01     31      0     30.3            0
##  9 CentralPark_NY 2016-09-01     30      0     26.1            0
## 10 CentralPark_NY 2016-10-01     31      0     18.8            0
## # ... with 26 more rows
…
Grouped mutate

weather_df %>% 
  group_by(name, month) %>% 
  mutate(mean_tmax = mean(tmax, na.rm = TRUE))

## # A tibble: 1,098 x 8
## # Groups:   name, month [36]
##    name        id        date       month       prcp  tmax  tmin mean_tmax
##    <chr>       <chr>     <date>     <date>     <dbl> <dbl> <dbl>     <dbl>
##  1 CentralPar USW00094 2016-01-01 2016-01-01     0   5.6   1.1      4.89
##  2 CentralPar USW00094 2016-01-02 2016-01-01     0   4.4   0        4.89
##  3 CentralPar USW00094 2016-01-03 2016-01-01     0   7.2   1.7      4.89
##  4 CentralPar USW00094 2016-01-04 2016-01-01     0   2.2  -9.9      4.89
##  5 CentralPar USW00094 2016-01-05 2016-01-01     0  -1.6 -11.6      4.89
##  6 CentralPar USW00094 2016-01-06 2016-01-01     0   5    -3.8      4.89
##  7 CentralPar USW00094 2016-01-07 2016-01-01     0   7.8  -0.5      4.89
##  8 CentralPar USW00094 2016-01-08 2016-01-01     0   7.8  -0.5      4.89
##  9 CentralPar USW00094 2016-01-09 2016-01-01     0   8.3   4.4      4.89
## 10 CentralPar USW00094 2016-01-10 2016-01-01   457  15     4.4      4.89
## # ... with 1,088 more rows
…
Window functions

Use Ranks

weather_df %>% 
  group_by(name, month) %>% 
  mutate(tmax_rank = min_rank(desc(tmax))) %>%   # Use rank
  filter(tmax_rank < 2)

## # A tibble: 63 x 8
## # Groups:   name, month [36]
##    name        id        date       month       prcp  tmax  tmin tmax_rank
##    <chr>       <chr>     <date>     <date>     <dbl> <dbl> <dbl>     <int>
##  1 CentralPar USW00094 2016-01-10 2016-01-01   457  15     4.4         1
##  2 CentralPar USW00094 2016-02-20 2016-02-01     0  16.1   3.9         1
##  3 CentralPar USW00094 2016-02-25 2016-02-01     5  16.1   2.8         1
##  4 CentralPar USW00094 2016-02-29 2016-02-01    13  16.1   8.3         1
##  5 CentralPar USW00094 2016-03-10 2016-03-01     0  26.1  17.2         1
##  6 CentralPar USW00094 2016-04-18 2016-04-01     0  27.8  10.6         1
##  7 CentralPar USW00094 2016-05-28 2016-05-01     0  33.3  21.7         1
##  8 CentralPar USW00094 2016-06-11 2016-06-01     0  31.1  15           1
##  9 CentralPar USW00094 2016-06-19 2016-06-01     0  31.1  18.9         1
## 10 CentralPar USW00094 2016-07-23 2016-07-01     0  35.6  26.7         1
## # ... with 53 more rows
